[
    {
        "language": [
            "COM_KOMENTO_ERROR",
            "COM_KOMENTO_LOADING",
            "COM_KOMENTO_COMMENTS_LOADING",
            "COM_KOMENTO_COMMENT_EDIT",
            "COM_KOMENTO_COMMENT_EDIT_CANCEL",
            "COM_KOMENTO_COMMENT_REPLY",
            "COM_KOMENTO_COMMENT_REPLY_CANCEL",
            "COM_KOMENTO_FORM_LEAVE_YOUR_COMMENTS",
            "COM_KOMENTO_FORM_IN_REPLY_TO",
            "COM_KOMENTO_FORM_SUBMIT",
            "COM_KOMENTO_FORM_REPLY",
            "COM_KOMENTO_FORM_NOTIFICATION_COMMENT_REQUIRED",
            "COM_KOMENTO_FORM_NOTIFICATION_COMMENT_TOO_SHORT",
            "COM_KOMENTO_FORM_NOTIFICATION_NOTIFICATION_USERNAME_REQUIRED",
            "COM_KOMENTO_FORM_NOTIFICATION_NAME_REQUIRED",
            "COM_KOMENTO_FORM_NOTIFICATION_EMAIL_REQUIRED",
            "COM_KOMENTO_FORM_NOTIFICATION_EMAIL_INVALID",
            "COM_KOMENTO_FORM_NOTIFICATION_WEBSITE_REQUIRED",
            "COM_KOMENTO_FORM_NOTIFICATION_WEBSITE_INVALID",
            "COM_KOMENTO_FORM_NOTIFICATION_TNC_REQUIRED",
            "COM_KOMENTO_FORM_NOTIFICATION_CAPTCHA_REQUIRED",
            "COM_KOMENTO_FORM_NOTIFICATION_MAX_FILE_SIZE",
            "COM_KOMENTO_FORM_NOTIFICATION_MAX_FILE_ITEM",
            "COM_KOMENTO_FORM_NOTIFICATION_FILE_EXTENSION",
            "COM_KOMENTO_FORM_NOTIFICATION_UPLOAD_NOT_ALLOWED",
            "COM_KOMENTO_FORM_LOCATION_AUTODETECT",
            "COM_KOMENTO_FORM_LOCATION_DETECTING"
        ],
        "adapter": "Komento"
    }
]