[
    {
        "library": [
            "ui/effect",
            "dialog",
            "fancybox"
        ],
        "script": [
            "sharelinks",
            "markitup",
            "komento.common",
            "komento.commentitem",
            "komento.bbcode",
            "komento.language"
        ],
        "view": [
            "dialogs/delete.single",
            "dialogs/delete.affectchild",
            "dialogs/unpublish.affectchild",
            "comment/item/edit.form",
            "dialogs/delete.attachment"
        ],
        "adapter": "Komento"
    }
]